-------------------------------------------------------------------------------
Test set: com.example.configurationservice.ConfigurationServiceApplicationTest
-------------------------------------------------------------------------------
Tests run: 1, Failures: 0, Errors: 0, Skipped: 0, Time elapsed: 5.128 s - in com.example.configurationservice.ConfigurationServiceApplicationTest
